{
  "name": {
    "en": "Items SubItems",
    "es": "SubItems de los Items"
  },
  "description": {
    "es": "Agrega una lista de sub items al objeto items",
    "en": "Adds a subItems list to the Item object"
  },
  "documentationUrl": {
    "es": "https://gitlab.com/dncp-opendata/ocds_items_subItems_extension"
  },
  "compatibility": [
    "1.1"
  ],
  "schemas": [
    "release-schema.json"
  ],
  "testDependencies": [
    "https://gitlab.com/dncp-opendata/ocds_item_attributes_extension//-/raw/master/extension.json"
  ]
}
